<?xml version="1.0" encoding="utf-8"?>
<!-- Generator: Adobe Illustrator 23.0.1, SVG Export Plug-In . SVG Version: 6.00 Build 0)  -->
<svg version="1.1" id="Warstwa_1" xmlns="http://www.w3.org/2000/svg" xmlns:xlink="http://www.w3.org/1999/xlink" x="0px" y="0px"
	 viewBox="0 0 37.4 37.4" style="enable-background:new 0 0 37.4 37.4;" xml:space="preserve">
<style type="text/css">
	.st0{opacity:0.17;fill:#EC1D57;enable-background:new    ;}
	.st1{fill:#EC1D57;}
	.st2{fill:#FFFFFF;}
</style>
<g id="arrow" transform="translate(-12.286 -6.571)">
	<path id="Path_99" class="st0" d="M31,6.6c10.3,0,18.7,8.4,18.7,18.7S41.3,44,31,44s-18.7-8.4-18.7-18.7c0,0,0,0,0,0
		C12.3,14.9,20.7,6.6,31,6.6z"/>
	<circle id="Ellipse_34" class="st1" cx="31" cy="25.3" r="14.3"/>
	<path class="st2" d="M30.5,33.9c-0.6,0-1-0.4-1-1V18.3c0-0.6,0.4-1,1-1s1,0.4,1,1v14.6C31.5,33.4,31.1,33.9,30.5,33.9z"/>
	<path class="st2" d="M24.2,25.6c-0.3,0-0.5-0.1-0.7-0.3c-0.4-0.4-0.4-1,0-1.4l6.2-6.2c0.4-0.4,1-0.4,1.4,0s0.4,1,0,1.4L25,25.3
		C24.8,25.5,24.5,25.6,24.2,25.6z"/>
	<path class="st2" d="M36.7,25.6c-0.3,0-0.5-0.1-0.7-0.3L29.8,19c-0.4-0.4-0.4-1,0-1.4s1-0.4,1.4,0l6.2,6.2c0.4,0.4,0.4,1,0,1.4
		C37.3,25.5,37,25.6,36.7,25.6z"/>
</g>
</svg>
