<?xml version="1.0" encoding="utf-8"?>
<!-- Generator: Adobe Illustrator 23.0.1, SVG Export Plug-In . SVG Version: 6.00 Build 0)  -->
<svg version="1.1" id="Warstwa_1" xmlns="http://www.w3.org/2000/svg" xmlns:xlink="http://www.w3.org/1999/xlink" x="0px" y="0px"
	 viewBox="0 0 23.5 22.5" style="enable-background:new 0 0 23.5 22.5;" xml:space="preserve">
<g>
	<path id="Path_47_1_" d="M23,10.1c-0.6-0.8-1.5-1.2-2.5-1.1H16V3.2c0-2.2-1.3-2.9-2.5-2.9c-1,0-2,0.6-2.4,1.5C10.4,3,8.1,7.8,7.4,9
		H0.2v13.2h16.1c0.6,0,1.1-0.3,1.5-0.8c1.2-1.8,2.7-4.4,4.6-7.8C23.3,12.2,23.5,11,23,10.1z M1.3,21.2V10.1h4v11.1H1.3z M21.5,13.2
		c-1.9,3.4-3.4,5.9-4.6,7.8c-0.1,0.2-0.2,0.3-0.6,0.3h-10V10.1h1.7c0,0,3.2-6.5,3.9-8c0.3-0.5,0.8-0.8,1.4-0.8
		c0.9,0,1.4,0.7,1.4,1.9v6.9h5.6c0.5,0,1.3,0.1,1.6,0.6S22.1,12,21.5,13.2L21.5,13.2z"/>
	<path d="M16.5,22.5c0,0-0.1,0-0.1,0H0V8.8h7.3C7.7,8,8.7,6,9.5,4.3c0.6-1.2,1.1-2.2,1.3-2.7c0.5-1,1.5-1.6,2.6-1.6c0,0,0,0,0,0
		c1.3,0,2.7,0.8,2.7,3.2v5.6h4.2c1-0.1,2.1,0.3,2.7,1.2l0,0c0.6,0.9,0.4,2.2-0.5,3.8c-1.9,3.4-3.5,6-4.6,7.8
		C17.7,22.2,17.1,22.5,16.5,22.5z M0.5,22h15.9c0.5,0,1-0.2,1.2-0.6c1.2-1.8,2.7-4.4,4.6-7.8c0.8-1.4,1-2.5,0.5-3.3
		c-0.5-0.7-1.4-1.1-2.3-1l-4.8,0V3.2c0-2-1.2-2.7-2.2-2.7c-0.9,0-1.8,0.5-2.2,1.3C11,2.3,10.5,3.4,9.9,4.6C9.1,6.4,8,8.4,7.7,9.2
		L7.6,9.3H0.5V22z M16.4,21.4H6.2V9.8H8c0.5-1,3.2-6.5,3.9-7.8c0.3-0.6,1-1,1.7-1c1,0,1.7,0.8,1.7,2.1v6.7h5.3
		c0.6,0,1.5,0.1,1.8,0.7c0.3,0.6,0.2,1.5-0.5,2.8l-0.2-0.1l0.2,0.1c-1.9,3.4-3.4,6-4.6,7.8C17,21.3,16.7,21.4,16.4,21.4z M6.7,20.9
		h9.7c0.3,0,0.3-0.1,0.3-0.1c1.1-1.8,2.7-4.3,4.6-7.7l0,0c0.6-1,0.8-1.9,0.5-2.3c-0.2-0.3-0.7-0.4-1.4-0.4h-5.8V3.2
		c0-0.6-0.2-1.6-1.2-1.6c0,0,0,0,0,0c-0.5,0-0.9,0.3-1.2,0.7c-0.7,1.4-3.9,7.9-3.9,8l-0.1,0.1H6.7V20.9z M5.6,21.4H1.1V9.8h4.5V21.4
		z M1.6,20.9h3.5V10.3H1.6V20.9z"/>
</g>
</svg>
