<?xml version="1.0" encoding="utf-8"?>
<!-- Generator: Adobe Illustrator 23.0.1, SVG Export Plug-In . SVG Version: 6.00 Build 0)  -->
<svg version="1.1" id="Warstwa_1" xmlns="http://www.w3.org/2000/svg" xmlns:xlink="http://www.w3.org/1999/xlink" x="0px" y="0px"
	 viewBox="0 0 26.1 24.8" style="enable-background:new 0 0 26.1 24.8;" xml:space="preserve">
<path d="M21.1,24.8L13,19.9L5,24.8l2.1-9.2L0,9.5l9.4-0.8L13,0l3.7,8.7l9.4,0.8L19,15.6L21.1,24.8z M3.7,10.6l5.1,4.4l-1.5,6.6
	l5.8-3.5l5.8,3.5l-1.5-6.6l5.1-4.4l-6.7-0.6L13,3.8l-2.6,6.2L3.7,10.6z"/>
</svg>
